Example mediation data — example250 • mediator
…
xRandom binary variable (0,1)

mRandom binary variable (0,1)

yRandom continuous variable (-3.04 to 3.54)

censRandom binary variable (0,1)

cRandom continuous variable (-3.11 to 2.52)

    Examples

example250
#> # A tibble: 250 x 6
#>       id     x     m       y  cens       c
#>    <int> <int> <int>   <dbl> <int>   <dbl>
#>  1     1     0     1  0.0218     0 -0.0137
#>  2     2     1     1  0.248      1  0.208 
#>  3     3     1     0  0.405      0 -0.153 
#>  4     4     0     1  0.389      0 -0.219 
#>  5     5     0     1  0.0620     0 -1.10  
#>  6     6     0     0 -0.0794     0 -1.40  
#>  7     7     1     1  1.10       0  0.240 
#>  8     8     0     1  0.386      0  0.509 
#>  9     9     0     1 -2.21       0  1.06  
#> 10    10     1     0 -1.00       0 -1.19  
#> # … with 240 more rows
…
